<?xml version="1.0" encoding="UTF-8" standalone="no"?>
<!-- Created with Inkscape (http://www.inkscape.org/) -->

<svg
   xmlns:dc="http://purl.org/dc/elements/1.1/"
   xmlns:cc="http://creativecommons.org/ns#"
   xmlns:rdf="http://www.w3.org/1999/02/22-rdf-syntax-ns#"
   xmlns:svg="http://www.w3.org/2000/svg"
   xmlns="http://www.w3.org/2000/svg"
   xmlns:sodipodi="http://sodipodi.sourceforge.net/DTD/sodipodi-0.dtd"
   xmlns:inkscape="http://www.inkscape.org/namespaces/inkscape"
   width="210mm"
   height="297mm"
   viewBox="0 0 210 297"
   version="1.1"
   id="svg8"
   sodipodi:docname="twitter-banner.svg"
   inkscape:version="0.92.4 (5da689c313, 2019-01-14)">
  <defs
     id="defs2" />
  <sodipodi:namedview
     id="base"
     pagecolor="#ffffff"
     bordercolor="#666666"
     borderopacity="1.0"
     inkscape:pageopacity="0.0"
     inkscape:pageshadow="2"
     inkscape:zoom="1.8758893"
     inkscape:cx="374.99409"
     inkscape:cy="899.92517"
     inkscape:document-units="mm"
     inkscape:current-layer="layer1"
     showgrid="false"
     inkscape:window-width="1920"
     inkscape:window-height="1016"
     inkscape:window-x="0"
     inkscape:window-y="27"
     inkscape:window-maximized="1" />
  <metadata
     id="metadata5">
    <rdf:RDF>
      <cc:Work
         rdf:about="">
        <dc:format>image/svg+xml</dc:format>
        <dc:type
           rdf:resource="http://purl.org/dc/dcmitype/StillImage" />
      </cc:Work>
    </rdf:RDF>
  </metadata>
  <g
     inkscape:label="Layer 1"
     inkscape:groupmode="layer"
     id="layer1">
    <rect
       style="opacity:1;fill:#1da1f3;fill-opacity:1;stroke:none;stroke-width:0.55434734;stroke-linecap:round;stroke-linejoin:round;stroke-miterlimit:4;stroke-dasharray:none;stroke-opacity:1"
       id="rect33"
       width="191.25595"
       height="84.359741"
       x="9.3720236"
       y="15.939185"
       inkscape:export-filename="/home/marc/twitter.png"
       inkscape:export-xdpi="212.49001"
       inkscape:export-ydpi="212.49001" />
    <text
       xml:space="preserve"
       style="font-style:normal;font-weight:normal;font-size:5.10015869px;line-height:1.25;font-family:sans-serif;letter-spacing:0px;word-spacing:0px;fill:#000000;fill-opacity:1;stroke:none;stroke-width:0.12750396"
       x="41.375027"
       y="82.417656"
       id="text12"
       inkscape:export-filename="/home/marc/twitter.png"
       inkscape:export-xdpi="212.49001"
       inkscape:export-ydpi="212.49001"><tspan
         sodipodi:role="line"
         id="tspan10"
         x="41.375027"
         y="82.417656"
         style="stroke-width:0.12750396"><tspan
   style="fill:#ff0000;stroke-width:0.12750396"
   id="tspan37">mirror</tspan>: https://marclandolt.ch/HackersCardgame10</tspan></text>
    <text
       xml:space="preserve"
       style="font-style:normal;font-weight:normal;font-size:12.45191479px;line-height:1.25;font-family:sans-serif;letter-spacing:0px;word-spacing:0px;fill:#ffffff;fill-opacity:1;stroke:none;stroke-width:0.31129786"
       x="16.607676"
       y="53.777657"
       id="text16"
       inkscape:export-filename="/home/marc/twitter.png"
       inkscape:export-xdpi="212.49001"
       inkscape:export-ydpi="212.49001"><tspan
         sodipodi:role="line"
         id="tspan14"
         x="16.607676"
         y="53.777657"
         style="font-style:normal;font-variant:normal;font-weight:normal;font-stretch:normal;font-family:slave;-inkscape-font-specification:slave;fill:#ffffff;stroke-width:0.31129786"><tspan
   style="fill:#ff0000;stroke-width:0.31129786"
   id="tspan79">H</tspan><tspan
   style="fill:#008000;stroke-width:0.31129786"
   id="tspan73">a</tspan><tspan
   style="fill:#0000ff;stroke-width:0.31129786"
   id="tspan77">c</tspan><tspan
   style="fill:#ff6600;stroke-width:0.31129786"
   id="tspan75">k</tspan><tspan
   style="fill:#ff00ff;stroke-width:0.31129786"
   id="tspan81">e</tspan>r<tspan
   style="fill:#ffff00;stroke-width:0.31129786"
   id="tspan83">s</tspan><tspan
   style="fill:#ff0000;stroke-width:0.31129786"
   id="tspan85">C</tspan>a<tspan
   style="fill:#800000;stroke-width:0.31129786"
   id="tspan87">r</tspan><tspan
   style="fill:#c87137;stroke-width:0.31129786"
   id="tspan89">d</tspan><tspan
   style="fill:#ffd42a;stroke-width:0.31129786"
   id="tspan91">g</tspan>a<tspan
   style="fill:#88aa00;stroke-width:0.31129786"
   id="tspan93">m</tspan><tspan
   style="fill:#d4ff2a;stroke-width:0.31129786"
   id="tspan97">e</tspan>.<tspan
   style="fill:#2c89a0;stroke-width:0.31129786"
   id="tspan99">c</tspan><tspan
   style="fill:#0000aa;stroke-width:0.31129786"
   id="tspan101">h</tspan></tspan></text>
    <text
       xml:space="preserve"
       style="font-style:normal;font-weight:normal;font-size:5.10015869px;line-height:1.25;font-family:sans-serif;letter-spacing:0px;word-spacing:0px;fill:#000000;fill-opacity:1;stroke:none;stroke-width:0.12750396"
       x="37.049355"
       y="74.403137"
       id="text20"
       inkscape:export-filename="/home/marc/twitter.png"
       inkscape:export-xdpi="212.49001"
       inkscape:export-ydpi="212.49001"><tspan
         sodipodi:role="line"
         id="tspan18"
         x="37.049355"
         y="74.403137"
         style="stroke-width:0.12750396"><tspan
   style="fill:#ff0000;stroke-width:0.12750396"
   id="tspan35">mirror</tspan>: https://0x8.ch/HackersCardgame10/jpg/EN/#t1</tspan></text>
    <text
       xml:space="preserve"
       style="font-style:normal;font-weight:normal;font-size:5.10015869px;line-height:1.25;font-family:sans-serif;letter-spacing:0px;word-spacing:0px;fill:#000000;fill-opacity:1;stroke:none;stroke-width:0.12750396"
       x="32.829517"
       y="33.528984"
       id="text41"
       inkscape:export-filename="/home/marc/twitter.png"
       inkscape:export-xdpi="212.49001"
       inkscape:export-ydpi="212.49001"><tspan
         sodipodi:role="line"
         id="tspan39"
         x="32.829517"
         y="33.528984"
         style="stroke-width:0.12750396"><tspan
   style="fill:#00ff00;stroke-width:0.12750396"
   id="tspan52">source</tspan>: https://github.com/braindef/HackersCardgame10/</tspan></text>
  </g>
</svg>
